ISO-10303-21;
HEADER;
FILE_DESCRIPTION (( 'STEP AP203' ),
    '1' );
FILE_NAME ('90176A128.STEP',
    '2017-08-03T20:48:33',
    ( '' ),
    ( '' ),
    'SwSTEP 2.0',
    'SolidWorks 2016',
    '' );
FILE_SCHEMA (( 'CONFIG_CONTROL_DESIGN' ));
ENDSEC;

DATA;
#1 = ORIENTED_EDGE ( 'NONE', *, *, #181, .T. ) ;
#2 = ORIENTED_EDGE ( 'NONE', *, *, #83, .T. ) ;
#3 = LINE ( 'NONE', #248, #198 ) ;
#4 = ORIENTED_EDGE ( 'NONE', *, *, #42, .F. ) ;
#5 = CC_DESIGN_PERSON_AND_ORGANIZATION_ASSIGNMENT ( #206, #35, ( #210 ) ) ;
#6 = PLANE ( 'NONE',  #93 ) ;
#7 = DIRECTION ( 'NONE',  ( 1.000000000000000000, 0.0000000000000000000, 0.0000000000000000000 ) ) ;
#8 = ADVANCED_FACE ( 'NONE', ( #61, #243 ), #149, .T. ) ;
#9 = EDGE_CURVE ( 'NONE', #99, #28, #151, .T. ) ;
#10 = CARTESIAN_POINT ( 'NONE',  ( 1.778000000000000000, 2.177422008883993900E-016, 1.587499999999999900 ) ) ;
#11 = AXIS2_PLACEMENT_3D ( 'NONE', #196, #242, #7 ) ;
#12 =( NAMED_UNIT ( * ) SI_UNIT ( $, .STERADIAN. ) SOLID_ANGLE_UNIT ( ) );
#13 = DIRECTION ( 'NONE',  ( 0.0000000000000000000, 0.0000000000000000000, 1.000000000000000000 ) ) ;
#14 =( LENGTH_UNIT ( ) NAMED_UNIT ( * ) SI_UNIT ( .MILLI., .METRE. ) );
#15 = CC_DESIGN_APPROVAL ( #69, ( #22 ) ) ;
#16 = CARTESIAN_POINT ( 'NONE',  ( 3.174999999999999800, 3.888253587292846100E-016, 1.587499999999999900 ) ) ;
#17 = CARTESIAN_POINT ( 'NONE',  ( 0.0000000000000000000, 0.0000000000000000000, 1.587499999999999900 ) ) ;
#18 = DIRECTION ( 'NONE',  ( -1.000000000000000000, 0.0000000000000000000, 0.0000000000000000000 ) ) ;
#19 = LINE ( 'NONE', #161, #78 ) ;
#20 = ORIENTED_EDGE ( 'NONE', *, *, #181, .F. ) ;
#21 = APPROVAL_DATE_TIME ( #102, #69 ) ;
#22 = SECURITY_CLASSIFICATION ( '', '', #228 ) ;
#23 = AXIS2_PLACEMENT_3D ( 'NONE', #169, #188, #27 ) ;
#24 = EDGE_CURVE ( 'NONE', #44, #65, #48, .T. ) ;
#25 = CIRCLE ( 'NONE', #249, 1.778000000000000000 ) ;
#26 = MANIFOLD_SOLID_BREP ( 'Extrude1', #101 ) ;
#27 = DIRECTION ( 'NONE',  ( 1.000000000000000000, 0.0000000000000000000, 0.0000000000000000000 ) ) ;
#28 = VERTEX_POINT ( 'NONE', #76 ) ;
#29 = FACE_OUTER_BOUND ( 'NONE', #168, .T. ) ;
#30 = AXIS2_PLACEMENT_3D ( 'NONE', #94, #214, #135 ) ;
#31 = DIRECTION ( 'NONE',  ( 0.0000000000000000000, 0.0000000000000000000, 1.000000000000000000 ) ) ;
#32 = LINE ( 'NONE', #244, #45 ) ;
#33 = CC_DESIGN_SECURITY_CLASSIFICATION ( #22, ( #210 ) ) ;
#34 = FACE_BOUND ( 'NONE', #177, .T. ) ;
#35 = PERSON_AND_ORGANIZATION_ROLE ( 'design_supplier' ) ;
#36 = CC_DESIGN_PERSON_AND_ORGANIZATION_ASSIGNMENT ( #187, #47, ( #22 ) ) ;
#37 = ORIENTED_EDGE ( 'NONE', *, *, #63, .F. ) ;
#38 = COORDINATED_UNIVERSAL_TIME_OFFSET ( 6, 0, .BEHIND. ) ;
#39 = APPROVAL_ROLE ( '' ) ;
#40 = PERSON ( 'UNSPECIFIED', 'UNSPECIFIED', 'UNSPECIFIED', ('UNSPECIFIED'), ('UNSPECIFIED'), ('UNSPECIFIED') ) ;
#41 = COORDINATED_UNIVERSAL_TIME_OFFSET ( 6, 0, .BEHIND. ) ;
#42 = EDGE_CURVE ( 'NONE', #119, #44, #3, .T. ) ;
#43 = EDGE_CURVE ( 'NONE', #144, #65, #19, .T. ) ;
#44 = VERTEX_POINT ( 'NONE', #174 ) ;
#45 = VECTOR ( 'NONE', #240, 1000.000000000000000 ) ;
#46 = AXIS2_PLACEMENT_3D ( 'NONE', #191, #185, #192 ) ;
#47 = PERSON_AND_ORGANIZATION_ROLE ( 'classification_officer' ) ;
#48 = CIRCLE ( 'NONE', #225, 3.174999999999999800 ) ;
#49 = CYLINDRICAL_SURFACE ( 'NONE', #72, 1.778000000000000000 ) ;
#50 = PRODUCT_RELATED_PRODUCT_CATEGORY ( 'detail', '', ( #215 ) ) ;
#51 = EDGE_LOOP ( 'NONE', ( #37, #134 ) ) ;
#52 = CIRCLE ( 'NONE', #202, 1.778000000000000000 ) ;
#53 = CARTESIAN_POINT ( 'NONE',  ( 0.0000000000000000000, 0.0000000000000000000, 1.587499999999999900 ) ) ;
#54 = APPLICATION_CONTEXT ( 'configuration controlled 3d designs of mechanical parts and assemblies' ) ;
#55 = AXIS2_PLACEMENT_3D ( 'NONE', #105, #89, #146 ) ;
#56 = CC_DESIGN_DATE_AND_TIME_ASSIGNMENT ( #199, #219, ( #22 ) ) ;
#57 = CARTESIAN_POINT ( 'NONE',  ( 0.0000000000000000000, 0.0000000000000000000, -1.587499999999999900 ) ) ;
#58 = EDGE_CURVE ( 'NONE', #65, #44, #231, .T. ) ;
#59 = ADVANCED_FACE ( 'NONE', ( #133 ), #103, .F. ) ;
#60 = ADVANCED_FACE ( 'NONE', ( #29 ), #137, .T. ) ;
#61 = FACE_OUTER_BOUND ( 'NONE', #91, .T. ) ;
#62 = CARTESIAN_POINT ( 'NONE',  ( 1.778000000000000000, 2.177422008883993900E-016, -1.587499999999999900 ) ) ;
#63 = EDGE_CURVE ( 'NONE', #95, #67, #81, .T. ) ;
#64 = AXIS2_PLACEMENT_3D ( 'NONE', #222, #132, #190 ) ;
#65 = VERTEX_POINT ( 'NONE', #180 ) ;
#66 = CARTESIAN_POINT ( 'NONE',  ( -1.778000000000000000, 0.0000000000000000000, 1.587499999999999900 ) ) ;
#67 = VERTEX_POINT ( 'NONE', #10 ) ;
#68 = EDGE_LOOP ( 'NONE', ( #205, #114 ) ) ;
#69 = APPROVAL ( #85, 'UNSPECIFIED' ) ;
#70 = DIRECTION ( 'NONE',  ( -0.0000000000000000000, -0.0000000000000000000, -1.000000000000000000 ) ) ;
#71 = CARTESIAN_POINT ( 'NONE',  ( 0.0000000000000000000, 0.0000000000000000000, 1.587499999999999900 ) ) ;
#72 = AXIS2_PLACEMENT_3D ( 'NONE', #175, #226, #139 ) ;
#73 = FACE_OUTER_BOUND ( 'NONE', #120, .T. ) ;
#74 = CALENDAR_DATE ( 2017, 3, 8 ) ;
#75 = CARTESIAN_POINT ( 'NONE',  ( 0.0000000000000000000, 0.0000000000000000000, -1.587499999999999900 ) ) ;
#76 = CARTESIAN_POINT ( 'NONE',  ( -1.778000000000000000, 0.0000000000000000000, -1.587499999999999900 ) ) ;
#77 = DIRECTION ( 'NONE',  ( -0.0000000000000000000, -0.0000000000000000000, -1.000000000000000000 ) ) ;
#78 = VECTOR ( 'NONE', #77, 1000.000000000000000 ) ;
#79 = DIRECTION ( 'NONE',  ( 1.000000000000000000, 0.0000000000000000000, 0.0000000000000000000 ) ) ;
#80 = VECTOR ( 'NONE', #122, 1000.000000000000000 ) ;
#81 = CIRCLE ( 'NONE', #224, 1.778000000000000000 ) ;
#82 = EDGE_CURVE ( 'NONE', #28, #99, #52, .T. ) ;
#83 = EDGE_CURVE ( 'NONE', #67, #95, #25, .T. ) ;
#84 = DIRECTION ( 'NONE',  ( 1.000000000000000000, 0.0000000000000000000, -0.0000000000000000000 ) ) ;
#85 = APPROVAL_STATUS ( 'not_yet_approved' ) ;
#86 =( GEOMETRIC_REPRESENTATION_CONTEXT ( 3 ) GLOBAL_UNCERTAINTY_ASSIGNED_CONTEXT ( ( #118 ) ) GLOBAL_UNIT_ASSIGNED_CONTEXT ( ( #14, #239, #12 ) ) REPRESENTATION_CONTEXT ( 'NONE', 'WORKASPACE' ) );
#87 = DIRECTION ( 'NONE',  ( -0.0000000000000000000, -0.0000000000000000000, -1.000000000000000000 ) ) ;
#88 = PRODUCT_DEFINITION_SHAPE ( 'NONE', 'NONE',  #150 ) ;
#89 = DIRECTION ( 'NONE',  ( 0.0000000000000000000, 0.0000000000000000000, 1.000000000000000000 ) ) ;
#90 = ORIENTED_EDGE ( 'NONE', *, *, #43, .T. ) ;
#91 = EDGE_LOOP ( 'NONE', ( #186, #245 ) ) ;
#92 = ADVANCED_FACE ( 'NONE', ( #73 ), #194, .T. ) ;
#93 = AXIS2_PLACEMENT_3D ( 'NONE', #211, #173, #153 ) ;
#94 = CARTESIAN_POINT ( 'NONE',  ( 0.0000000000000000000, 0.0000000000000000000, 1.587499999999999900 ) ) ;
#95 = VERTEX_POINT ( 'NONE', #66 ) ;
#96 = PERSON_AND_ORGANIZATION ( #40, #121 ) ;
#97 = APPROVAL_STATUS ( 'not_yet_approved' ) ;
#98 = PERSON_AND_ORGANIZATION_ROLE ( 'creator' ) ;
#99 = VERTEX_POINT ( 'NONE', #62 ) ;
#100 = EDGE_LOOP ( 'NONE', ( #216, #189, #179, #20 ) ) ;
#101 = CLOSED_SHELL ( 'NONE', ( #155, #60, #8, #238, #92, #59 ) ) ;
#102 = DATE_AND_TIME ( #74, #232 ) ;
#103 = CYLINDRICAL_SURFACE ( 'NONE', #218, 1.778000000000000000 ) ;
#104 = FACE_OUTER_BOUND ( 'NONE', #68, .T. ) ;
#105 = CARTESIAN_POINT ( 'NONE',  ( 0.0000000000000000000, 0.0000000000000000000, -1.587499999999999900 ) ) ;
#106 = CARTESIAN_POINT ( 'NONE',  ( -1.778000000000000000, 0.0000000000000000000, 1.587499999999999900 ) ) ;
#107 = ORIENTED_EDGE ( 'NONE', *, *, #58, .T. ) ;
#108 = CIRCLE ( 'NONE', #64, 3.174999999999999800 ) ;
#109 = PERSON_AND_ORGANIZATION ( #40, #121 ) ;
#110 = DIRECTION ( 'NONE',  ( -1.000000000000000000, 0.0000000000000000000, 0.0000000000000000000 ) ) ;
#111 = DIRECTION ( 'NONE',  ( 1.000000000000000000, 0.0000000000000000000, 0.0000000000000000000 ) ) ;
#112 = SHAPE_DEFINITION_REPRESENTATION ( #88, #247 ) ;
#113 = ORIENTED_EDGE ( 'NONE', *, *, #9, .T. ) ;
#114 = ORIENTED_EDGE ( 'NONE', *, *, #24, .F. ) ;
#115 = PERSON_AND_ORGANIZATION ( #40, #121 ) ;
#116 = COORDINATED_UNIVERSAL_TIME_OFFSET ( 6, 0, .BEHIND. ) ;
#117 = APPLICATION_CONTEXT ( 'configuration controlled 3d designs of mechanical parts and assemblies' ) ;
#118 = UNCERTAINTY_MEASURE_WITH_UNIT (LENGTH_MEASURE( 1.000000000000000100E-005 ), #14, 'distance_accuracy_value', 'NONE');
#119 = VERTEX_POINT ( 'NONE', #16 ) ;
#120 = EDGE_LOOP ( 'NONE', ( #4, #229, #90, #107 ) ) ;
#121 = ORGANIZATION ( 'UNSPECIFIED', 'UNSPECIFIED', '' ) ;
#122 = DIRECTION ( 'NONE',  ( -0.0000000000000000000, -0.0000000000000000000, -1.000000000000000000 ) ) ;
#123 = LOCAL_TIME ( 15, 48, 33.00000000000000000, #116 ) ;
#124 = EDGE_CURVE ( 'NONE', #119, #144, #128, .T. ) ;
#125 = ORIENTED_EDGE ( 'NONE', *, *, #195, .F. ) ;
#126 = APPROVAL_PERSON_ORGANIZATION ( #220, #69, #127 ) ;
#127 = APPROVAL_ROLE ( '' ) ;
#128 = CIRCLE ( 'NONE', #30, 3.174999999999999800 ) ;
#129 = CC_DESIGN_PERSON_AND_ORGANIZATION_ASSIGNMENT ( #109, #209, ( #215 ) ) ;
#130 = DIRECTION ( 'NONE',  ( 0.0000000000000000000, 0.0000000000000000000, 1.000000000000000000 ) ) ;
#131 = DIRECTION ( 'NONE',  ( 0.0000000000000000000, 0.0000000000000000000, 1.000000000000000000 ) ) ;
#132 = DIRECTION ( 'NONE',  ( 0.0000000000000000000, 0.0000000000000000000, 1.000000000000000000 ) ) ;
#133 = FACE_OUTER_BOUND ( 'NONE', #176, .T. ) ;
#134 = ORIENTED_EDGE ( 'NONE', *, *, #83, .F. ) ;
#135 = DIRECTION ( 'NONE',  ( 1.000000000000000000, 0.0000000000000000000, 0.0000000000000000000 ) ) ;
#136 = COORDINATED_UNIVERSAL_TIME_OFFSET ( 6, 0, .BEHIND. ) ;
#137 = CYLINDRICAL_SURFACE ( 'NONE', #235, 3.174999999999999800 ) ;
#138 = DATE_AND_TIME ( #157, #140 ) ;
#139 = DIRECTION ( 'NONE',  ( -1.000000000000000000, 0.0000000000000000000, 0.0000000000000000000 ) ) ;
#140 = LOCAL_TIME ( 15, 48, 33.00000000000000000, #136 ) ;
#141 = APPROVAL_ROLE ( '' ) ;
#142 = ORIENTED_EDGE ( 'NONE', *, *, #124, .F. ) ;
#143 = ORIENTED_EDGE ( 'NONE', *, *, #42, .T. ) ;
#144 = VERTEX_POINT ( 'NONE', #217 ) ;
#145 = APPROVAL_DATE_TIME ( #164, #162 ) ;
#146 = DIRECTION ( 'NONE',  ( 1.000000000000000000, 0.0000000000000000000, 0.0000000000000000000 ) ) ;
#147 = LINE ( 'NONE', #106, #80 ) ;
#148 = PERSON_AND_ORGANIZATION ( #40, #121 ) ;
#149 = PLANE ( 'NONE',  #236 ) ;
#150 = PRODUCT_DEFINITION ( 'UNKNOWN', '', #210, #213 ) ;
#151 = CIRCLE ( 'NONE', #11, 1.778000000000000000 ) ;
#152 = DATE_TIME_ROLE ( 'creation_date' ) ;
#153 = DIRECTION ( 'NONE',  ( 1.000000000000000000, 0.0000000000000000000, -0.0000000000000000000 ) ) ;
#154 = APPROVAL_PERSON_ORGANIZATION ( #115, #162, #39 ) ;
#155 = ADVANCED_FACE ( 'NONE', ( #182 ), #49, .F. ) ;
#156 = LOCAL_TIME ( 15, 48, 33.00000000000000000, #201 ) ;
#157 = CALENDAR_DATE ( 2017, 3, 8 ) ;
#158 = CARTESIAN_POINT ( 'NONE',  ( 0.0000000000000000000, 0.0000000000000000000, 1.587499999999999900 ) ) ;
#159 = APPROVAL_DATE_TIME ( #160, #221 ) ;
#160 = DATE_AND_TIME ( #166, #156 ) ;
#161 = CARTESIAN_POINT ( 'NONE',  ( -3.174999999999999800, 0.0000000000000000000, 1.587499999999999900 ) ) ;
#162 = APPROVAL ( #97, 'UNSPECIFIED' ) ;
#163 = ORIENTED_EDGE ( 'NONE', *, *, #82, .T. ) ;
#164 = DATE_AND_TIME ( #212, #123 ) ;
#165 = PERSON_AND_ORGANIZATION ( #40, #121 ) ;
#166 = CALENDAR_DATE ( 2017, 3, 8 ) ;
#167 = CARTESIAN_POINT ( 'NONE',  ( 0.0000000000000000000, 0.0000000000000000000, 1.587499999999999900 ) ) ;
#168 = EDGE_LOOP ( 'NONE', ( #142, #143, #237, #227 ) ) ;
#169 = CARTESIAN_POINT ( 'NONE',  ( 0.0000000000000000000, 0.0000000000000000000, 0.0000000000000000000 ) ) ;
#170 = DIRECTION ( 'NONE',  ( 1.000000000000000000, 0.0000000000000000000, 0.0000000000000000000 ) ) ;
#171 = CC_DESIGN_APPROVAL ( #162, ( #150 ) ) ;
#172 = DIRECTION ( 'NONE',  ( 1.000000000000000000, 0.0000000000000000000, 0.0000000000000000000 ) ) ;
#173 = DIRECTION ( 'NONE',  ( 0.0000000000000000000, 0.0000000000000000000, 1.000000000000000000 ) ) ;
#174 = CARTESIAN_POINT ( 'NONE',  ( 3.174999999999999800, 3.888253587292846100E-016, -1.587499999999999900 ) ) ;
#175 = CARTESIAN_POINT ( 'NONE',  ( 0.0000000000000000000, 0.0000000000000000000, 1.587499999999999900 ) ) ;
#176 = EDGE_LOOP ( 'NONE', ( #125, #2, #1, #234 ) ) ;
#177 = EDGE_LOOP ( 'NONE', ( #163, #113 ) ) ;
#178 = PERSON_AND_ORGANIZATION_ROLE ( 'creator' ) ;
#179 = ORIENTED_EDGE ( 'NONE', *, *, #82, .F. ) ;
#180 = CARTESIAN_POINT ( 'NONE',  ( -3.174999999999999800, 0.0000000000000000000, -1.587499999999999900 ) ) ;
#181 = EDGE_CURVE ( 'NONE', #95, #28, #147, .T. ) ;
#182 = FACE_OUTER_BOUND ( 'NONE', #100, .T. ) ;
#183 = APPROVAL_PERSON_ORGANIZATION ( #165, #221, #141 ) ;
#184 = CC_DESIGN_PERSON_AND_ORGANIZATION_ASSIGNMENT ( #96, #98, ( #150 ) ) ;
#185 = DIRECTION ( 'NONE',  ( -0.0000000000000000000, -0.0000000000000000000, -1.000000000000000000 ) ) ;
#186 = ORIENTED_EDGE ( 'NONE', *, *, #208, .T. ) ;
#187 = PERSON_AND_ORGANIZATION ( #40, #121 ) ;
#188 = DIRECTION ( 'NONE',  ( 0.0000000000000000000, 0.0000000000000000000, 1.000000000000000000 ) ) ;
#189 = ORIENTED_EDGE ( 'NONE', *, *, #195, .T. ) ;
#190 = DIRECTION ( 'NONE',  ( 1.000000000000000000, 0.0000000000000000000, 0.0000000000000000000 ) ) ;
#191 = CARTESIAN_POINT ( 'NONE',  ( 0.0000000000000000000, 0.0000000000000000000, 1.587499999999999900 ) ) ;
#192 = DIRECTION ( 'NONE',  ( -1.000000000000000000, 0.0000000000000000000, 0.0000000000000000000 ) ) ;
#193 = APPLICATION_PROTOCOL_DEFINITION ( 'international standard', 'config_control_design', 1994, #117 ) ;
#194 = CYLINDRICAL_SURFACE ( 'NONE', #46, 3.174999999999999800 ) ;
#195 = EDGE_CURVE ( 'NONE', #67, #99, #32, .T. ) ;
#196 = CARTESIAN_POINT ( 'NONE',  ( 0.0000000000000000000, 0.0000000000000000000, -1.587499999999999900 ) ) ;
#197 = CC_DESIGN_DATE_AND_TIME_ASSIGNMENT ( #138, #152, ( #150 ) ) ;
#198 = VECTOR ( 'NONE', #70, 1000.000000000000000 ) ;
#199 = DATE_AND_TIME ( #200, #204 ) ;
#200 = CALENDAR_DATE ( 2017, 3, 8 ) ;
#201 = COORDINATED_UNIVERSAL_TIME_OFFSET ( 6, 0, .BEHIND. ) ;
#202 = AXIS2_PLACEMENT_3D ( 'NONE', #57, #131, #170 ) ;
#203 = DIRECTION ( 'NONE',  ( -0.0000000000000000000, -0.0000000000000000000, -1.000000000000000000 ) ) ;
#204 = LOCAL_TIME ( 15, 48, 33.00000000000000000, #38 ) ;
#205 = ORIENTED_EDGE ( 'NONE', *, *, #58, .F. ) ;
#206 = PERSON_AND_ORGANIZATION ( #40, #121 ) ;
#207 = APPROVAL_STATUS ( 'not_yet_approved' ) ;
#208 = EDGE_CURVE ( 'NONE', #144, #119, #108, .T. ) ;
#209 = PERSON_AND_ORGANIZATION_ROLE ( 'design_owner' ) ;
#210 = PRODUCT_DEFINITION_FORMATION_WITH_SPECIFIED_SOURCE ( 'ANY', '', #215, .NOT_KNOWN. ) ;
#211 = CARTESIAN_POINT ( 'NONE',  ( 0.0000000000000000000, 0.0000000000000000000, -1.587499999999999900 ) ) ;
#212 = CALENDAR_DATE ( 2017, 3, 8 ) ;
#213 = DESIGN_CONTEXT ( 'detailed design', #54, 'design' ) ;
#214 = DIRECTION ( 'NONE',  ( 0.0000000000000000000, 0.0000000000000000000, 1.000000000000000000 ) ) ;
#215 = PRODUCT ( '90176A128', '90176A128', '', ( #233 ) ) ;
#216 = ORIENTED_EDGE ( 'NONE', *, *, #63, .T. ) ;
#217 = CARTESIAN_POINT ( 'NONE',  ( -3.174999999999999800, 0.0000000000000000000, 1.587499999999999900 ) ) ;
#218 = AXIS2_PLACEMENT_3D ( 'NONE', #158, #203, #18 ) ;
#219 = DATE_TIME_ROLE ( 'classification_date' ) ;
#220 = PERSON_AND_ORGANIZATION ( #40, #121 ) ;
#221 = APPROVAL ( #207, 'UNSPECIFIED' ) ;
#222 = CARTESIAN_POINT ( 'NONE',  ( 0.0000000000000000000, 0.0000000000000000000, 1.587499999999999900 ) ) ;
#223 = APPLICATION_PROTOCOL_DEFINITION ( 'international standard', 'config_control_design', 1994, #54 ) ;
#224 = AXIS2_PLACEMENT_3D ( 'NONE', #53, #130, #111 ) ;
#225 = AXIS2_PLACEMENT_3D ( 'NONE', #75, #246, #79 ) ;
#226 = DIRECTION ( 'NONE',  ( -0.0000000000000000000, -0.0000000000000000000, -1.000000000000000000 ) ) ;
#227 = ORIENTED_EDGE ( 'NONE', *, *, #43, .F. ) ;
#228 = SECURITY_CLASSIFICATION_LEVEL ( 'unclassified' ) ;
#229 = ORIENTED_EDGE ( 'NONE', *, *, #208, .F. ) ;
#230 = CC_DESIGN_APPROVAL ( #221, ( #210 ) ) ;
#231 = CIRCLE ( 'NONE', #55, 3.174999999999999800 ) ;
#232 = LOCAL_TIME ( 15, 48, 33.00000000000000000, #41 ) ;
#233 = MECHANICAL_CONTEXT ( 'NONE', #117, 'mechanical' ) ;
#234 = ORIENTED_EDGE ( 'NONE', *, *, #9, .F. ) ;
#235 = AXIS2_PLACEMENT_3D ( 'NONE', #167, #87, #110 ) ;
#236 = AXIS2_PLACEMENT_3D ( 'NONE', #71, #13, #84 ) ;
#237 = ORIENTED_EDGE ( 'NONE', *, *, #24, .T. ) ;
#238 = ADVANCED_FACE ( 'NONE', ( #104, #34 ), #6, .F. ) ;
#239 =( NAMED_UNIT ( * ) PLANE_ANGLE_UNIT ( ) SI_UNIT ( $, .RADIAN. ) );
#240 = DIRECTION ( 'NONE',  ( -0.0000000000000000000, -0.0000000000000000000, -1.000000000000000000 ) ) ;
#241 = CC_DESIGN_PERSON_AND_ORGANIZATION_ASSIGNMENT ( #148, #178, ( #210 ) ) ;
#242 = DIRECTION ( 'NONE',  ( 0.0000000000000000000, 0.0000000000000000000, 1.000000000000000000 ) ) ;
#243 = FACE_BOUND ( 'NONE', #51, .T. ) ;
#244 = CARTESIAN_POINT ( 'NONE',  ( 1.778000000000000000, 2.177422008883993900E-016, 1.587499999999999900 ) ) ;
#245 = ORIENTED_EDGE ( 'NONE', *, *, #124, .T. ) ;
#246 = DIRECTION ( 'NONE',  ( 0.0000000000000000000, 0.0000000000000000000, 1.000000000000000000 ) ) ;
#247 = ADVANCED_BREP_SHAPE_REPRESENTATION ( '90176A128', ( #26, #23 ), #86 ) ;
#248 = CARTESIAN_POINT ( 'NONE',  ( 3.174999999999999800, 3.888253587292846100E-016, 1.587499999999999900 ) ) ;
#249 = AXIS2_PLACEMENT_3D ( 'NONE', #17, #31, #172 ) ;
ENDSEC;
END-ISO-10303-21;
